ID,Tarefa,Início,Prazo,Dependências,Responsáveis
PC1,Ponto de Controle 1,16/03,04/04,,
7,Plano de Riscos,25/03,25/03,6,Toda a equipe
7.1,  Montar tabela SWOT,25/03,25/03,6,Toda a Equipe
7.2,  Levantamento de Riscos,25/03,25/03,6,Toda a equipe
7.2.1,    Riscos de Projeto,25/03,25/03,,Marcelo
7.2.2,    Riscos de Estrutura,25/03,25/03,6.1,Equipe de Estrutura
7.2.3,    Riscos de Eletrônica,25/03,25/03,6.2,Equipe de Eletrônica
7.2.4,    Riscos de Energia,25/03,25/03,6.3,Equipe de Energia
7.2.5,    Riscos de Software,25/03,25/03,6.4,Equipe de Software
7.3,  Definir ações de mitigação,25/03,25/03,7.2,Toda a Equipe
7.3.1,    Ações de Mitigação para o Projeto,25/03,25/03,7.2.1,Marcelo
7.3.2,    Ações de Mitigação para a Estrutura,25/03,25/03,7.2.2,Equipe de Estrutura
7.3.3,    Ações de Mitigação para a Eletrônica,25/03,25/03,7.2.3,Equipe de Eletrônica
7.3.4,    Ações de Mitigação para a  Energia,25/03,25/03,7.2.4,Equipe de Energia
7.3.5,    Ações de Mitigação para o Software,25/03,25/03,7.2.5,Equipe de Software
8,Plano Financeiro,25/03,25/03,6,Toda a equipe
8.1,  Definição dos Custos,25/03,25/03,6,Toda a equipe
8.1.1,    Custos da Estrutura,25/03,25/03,6.1,Equipe de Estrutura
8.1.2,    Custos da parte Eletrônica,25/03,25/03,6.2,Equipe de Eletrônica
8.1.3,    Custos da parte Energética,25/03,25/03,6.3,Equipe de Energia
8.1.4,    Custos do Sistema de Software,25/03,25/03,6.4,Equipe de Software
8.1.5,    Totalização dos Custos,25/03,25/03,6.5 - 8.1.1 - 8.1.2 - 8.1.3 - 8.1.4,Iasmin
8.2,  Planejamento de Recursos Financeiros,25/03,25/03,8.1,Iasmin
8.2.1,    Aquisição de Recursos Financeiros,25/03,25/03,8.1,Iasmin
8.2.2,    Viabilidade Financeira do Projeto,25/03,25/03,8.1,Iasmin
9,Finalização do Ponto de Controle,25/03,11/04,,Toda a equipe
9.1,Confecção do 1º Relatório,25/03,25/03,1 a 8,Toda a equipe
9.2,Termo de Abertura do Projeto,26/03,26/03,9.1,Equipe de Energia
9.3,Revisão do 1º Relatório,26/03,27/03,9.2,"Artur, Danovan, Iasmin e Marcelo"
9.4,Entraga do 1º Relatório,28/03,28/03,9.3,Artur
9.5,1º Apresentação,04/04,11/04,9.4,Toda a equipe